Income Analysis Using GSS Data: Estimating Ability Bias
…
gss1a$income16_numeric <- vapply(gss1a$income16, get_midpoint, numeric(1))

gss1a

# A tibble: 4,631 × 11
   year      wordsum   age     educ     degree  rincome  income16 wrkstat wtssps
   <dbl+lbl> <dbl+lbl> <dbl+l> <dbl+lb> <dbl+l> <dbl+lb> <dbl+lb> <dbl+l> <dbl+>
 1 2016      8         47      16 [4 y… 3 [bac… 12 [$25… 26 [$17… 1 [wor… 0.727 
 2 2016      5         61      12 [12t… 1 [hig… 12 [$25… 19 [$50… 1 [wor… 0.338 
 3 2016      5         43      12 [12t… 1 [hig…  9 [$10… 26 [$17… 2 [wor… 1.25  
 4 2016      6         50      14 [2 y… 1 [hig… 12 [$25… 26 [$17… 1 [wor… 1.42  
 5 2016      6         45      12 [12t… 1 [hig… 11 [$20… 20 [$60… 1 [wor… 1.21  
 6 2016      4         32      12 [12t… 1 [hig…  4 [$4,…  8 [$8,… 2 [wor… 1.81  
 7 2016      4         76      10 [10t… 0 [les… 11 [$20… 18 [$40… 3 [wit… 0.394 
 8 2016      5         31      18 [6 y… 4 [gra… 12 [$25… 17 [$35… 1 [wor… 0.242 
 9 2016      7         43      13 [1 y… 1 [hig… 12 [$25… 15 [$25… 1 [wor… 0.403 
10 2016      9         58      12 [12t… 1 [hig… 12 [$25… 22 [$90… 1 [wor… 0.461 
# ℹ 4,621 more rows
# ℹ 2 more variables: wordsum_percentile <dbl>, income16_numeric <dbl>
…
